<?xml version="1.0" encoding="UTF-8" standalone="no"?>
<!-- Created with Inkscape (http://www.inkscape.org/) -->

<svg
   width="1024"
   height="1024"
   viewBox="0 0 270.93332 270.93334"
   version="1.1"
   id="svg12"
   inkscape:version="1.1 (c4e8f9ed74, 2021-05-24)"
   sodipodi:docname="Event_Cost_Pip.svg"
   xmlns:inkscape="http://www.inkscape.org/namespaces/inkscape"
   xmlns:sodipodi="http://sodipodi.sourceforge.net/DTD/sodipodi-0.dtd"
   xmlns="http://www.w3.org/2000/svg"
   xmlns:svg="http://www.w3.org/2000/svg">
  <sodipodi:namedview
     id="namedview14"
     pagecolor="#505050"
     bordercolor="#eeeeee"
     borderopacity="1"
     inkscape:pageshadow="0"
     inkscape:pageopacity="0"
     inkscape:pagecheckerboard="0"
     inkscape:document-units="px"
     showgrid="true"
     inkscape:snap-grids="true"
     inkscape:zoom="0.64"
     inkscape:cx="189.84375"
     inkscape:cy="479.6875"
     inkscape:window-width="1920"
     inkscape:window-height="1015"
     inkscape:window-x="1920"
     inkscape:window-y="0"
     inkscape:window-maximized="1"
     inkscape:current-layer="layer1"
     units="px"
     width="512px">
    <inkscape:grid
       type="xygrid"
       id="grid117" />
  </sodipodi:namedview>
  <defs
     id="defs9" />
  <g
     inkscape:label="Ebene 1"
     inkscape:groupmode="layer"
     id="layer1">
    <g
       id="g688"
       transform="matrix(1.4104653,0,0,1.4104653,-41.857292,-47.375695)"
       style="fill:#008080">
      <circle
         style="fill:#008080;stroke-width:0.230712"
         id="path605"
         cx="127.61817"
         cy="127.53445"
         r="86.516945" />
    </g>
    <path
       style="fill:#000000;stroke-width:0.264583"
       d="M 43.115575,101.18928 C 121.33466,62.151575 169.34668,84.433248 185.20833,171.97916 l 11.84107,5.89916 5.89916,-11.84106 C 179.42778,20.809587 105.90237,61.023594 37.173665,83.449076"
       id="path1401"
       sodipodi:nodetypes="ccccc" />
    <path
       style="fill:#000000;stroke-width:0.264583"
       d="M 149.7279,183.86297 238.429,154.15344 208.93322,213.35876 149.7279,183.86297"
       id="path1630" />
  </g>
</svg>
