<?xml version="1.0" encoding="UTF-8" standalone="no"?>
<!-- Created with Inkscape (http://www.inkscape.org/) -->

<svg
   width="63.5mm"
   height="88.900002mm"
   viewBox="0 0 63.5 88.900002"
   version="1.1"
   id="svg5"
   sodipodi:docname="Manifest_Card.svg"
   inkscape:version="1.1 (c4e8f9ed74, 2021-05-24)"
   xmlns:inkscape="http://www.inkscape.org/namespaces/inkscape"
   xmlns:sodipodi="http://sodipodi.sourceforge.net/DTD/sodipodi-0.dtd"
   xmlns:xlink="http://www.w3.org/1999/xlink"
   xmlns="http://www.w3.org/2000/svg"
   xmlns:svg="http://www.w3.org/2000/svg">
  <sodipodi:namedview
     id="namedview7"
     pagecolor="#505050"
     bordercolor="#eeeeee"
     borderopacity="1"
     inkscape:pageshadow="0"
     inkscape:pageopacity="0"
     inkscape:pagecheckerboard="0"
     inkscape:document-units="mm"
     showgrid="true"
     inkscape:zoom="2.4583333"
     inkscape:cx="180"
     inkscape:cy="319.32204"
     inkscape:window-width="1920"
     inkscape:window-height="1015"
     inkscape:window-x="1920"
     inkscape:window-y="0"
     inkscape:window-maximized="1"
     inkscape:current-layer="layer1"
     inkscape:snap-object-midpoints="true"
     inkscape:snap-center="true"
     inkscape:snap-midpoints="true"
     inkscape:snap-intersection-paths="true"
     inkscape:object-paths="true"
     inkscape:snap-smooth-nodes="true"
     inkscape:snap-text-baseline="true"
     inkscape:snap-page="true"
     inkscape:snap-bbox="true"
     inkscape:bbox-paths="true"
     inkscape:bbox-nodes="true"
     inkscape:snap-bbox-edge-midpoints="true"
     inkscape:snap-bbox-midpoints="true"
     width="63.5mm"
     inkscape:snap-grids="false"
     objecttolerance="10000"
     inkscape:snap-global="true"
     inkscape:snap-nodes="true"
     inkscape:snap-others="true"
     inkscape:object-nodes="true">
    <inkscape:grid
       type="xygrid"
       id="grid189"
       dotted="false"
       empspacing="10"
       color="#808080"
       opacity="0.50196078"
       empcolor="#000000"
       empopacity="0.50196078" />
  </sodipodi:namedview>
  <defs
     id="defs2">
    <linearGradient
       id="linearGradient5475"
       inkscape:swatch="gradient">
      <stop
         style="stop-color:#000000;stop-opacity:1;"
         offset="0"
         id="stop5471" />
      <stop
         style="stop-color:#808080;stop-opacity:1"
         offset="1"
         id="stop5473" />
    </linearGradient>
    <linearGradient
       id="linearGradient1493"
       inkscape:swatch="gradient">
      <stop
         style="stop-color:#000000;stop-opacity:1;"
         offset="0"
         id="stop1489" />
      <stop
         style="stop-color:#808080;stop-opacity:1"
         offset="1"
         id="stop1491" />
    </linearGradient>
    <linearGradient
       inkscape:collect="always"
       xlink:href="#linearGradient5475"
       id="linearGradient6167"
       gradientUnits="userSpaceOnUse"
       x1="61.912498"
       y1="2.2224922"
       x2="63.5"
       y2="0" />
    <linearGradient
       inkscape:collect="always"
       xlink:href="#linearGradient1493"
       id="linearGradient3828"
       x1="31.75"
       y1="44.449997"
       x2="31.75"
       y2="-31.364849"
       gradientUnits="userSpaceOnUse" />
  </defs>
  <g
     inkscape:label="Ebene 1"
     inkscape:groupmode="layer"
     id="layer1">
    <path
       style="fill:#000000;fill-opacity:1;stroke-width:0.264583"
       d="M 31.749997,44.449999 0,88.900002 H 63.499991 L 31.749997,44.449999"
       id="path3444" />
    <path
       style="fill:#000000;fill-opacity:1;stroke-width:0.264583"
       d="M 63.499999,0 31.749997,44.449999 63.499999,88.900002 V 0"
       id="path3448" />
    <path
       style="fill:#000000;fill-opacity:1;stroke-width:0.264583"
       d="M 0,0 31.749997,44.449999 0,88.900002 V 0"
       id="path3446" />
    <path
       style="fill:url(#linearGradient3828);fill-opacity:1;stroke-width:0.264583"
       d="M 0,0 31.749997,44.449999 63.499999,0 H 0"
       id="path3329" />
    <rect
       style="display:inline;fill:#008080;fill-opacity:1;stroke-width:0.171716"
       id="rect1422-3"
       width="60.325001"
       height="84.455017"
       x="1.5874996"
       y="2.2224922"
       rx="1.9000001"
       ry="1.9000001">
      <title
         id="title8-6">Color BG</title>
    </rect>
  </g>
</svg>
